<gpx>
    <name>route1</name>
    <number>1</number>
    <wpt lat="42.046908" lon="-87.679314">
      <ele>0</ele>
      <time>2016-12-29T00:01:00Z</time>
      <name>pt0</name>
    </wpt>
    <wpt lat="42.047745" lon="-87.679020">
      <ele>0</ele>
      <time>2016-12-29T00:02:25Z</time>
      <name>pt1</name>
    </wpt>
    <wpt lat="42.047974" lon="-87.679802">
      <ele>0</ele>
      <time>2016-12-29T00:03:45Z</time>
      <name>pt2</name>
    </wpt>
    <wpt lat="42.048157" lon="-87.680825">
      <ele>0</ele>
      <time>2016-12-29T04:03:00Z</time>
      <name>pt3</name>
    </wpt>
</gpx>
