<?xml version="1.0" encoding="UTF-8" standalone="no" ?>
 
<gpx xmlns="http://www.topografix.com/GPX/1/1" creator="bikehike.co.uk" version="1.1" 
    xmlns:xsi="http://www.w3.org/2001/XMLSchema-instance" 
    xsi:schemaLocation="http://www.topografix.com/GPX/1/1 http://www.topografix.com/GPX/1/1/gpx.xsd">

  <metadata>
    <time>2016-12-29T23:58:40Z</time>
    <bounds minlat="42.047260" minlon="-87.680770" maxlat="42.048240" maxlon="-87.678920" /> 
  </metadata>


  
  <rte>
    <name>route5</name>
    <number>1</number>
    <rtept lat="42.047260" lon="-87.679140">
      <ele>0</ele>
      <time>2016-12-29T23:58:40Z</time>
      <name>pt0</name>
    </rtept>
    <rtept lat="42.047730" lon="-87.678920">
      <ele>0</ele>
      <time>2016-12-29T23:58:48Z</time>
      <name>pt1</name>
    </rtept>
    <rtept lat="42.047840" lon="-87.679330">
      <ele>0</ele>
      <time>2016-12-29T23:58:53Z</time>
      <name>pt2</name>
    </rtept>
    <rtept lat="42.048040" lon="-87.680070">
      <ele>0</ele>
      <time>2016-12-29T23:59:03Z</time>
      <name>pt3</name>
    </rtept>
    <rtept lat="42.048240" lon="-87.680770">
      <ele>0</ele>
      <time>2016-12-29T23:59:12Z</time>
      <name>pt4</name>
    </rtept>
  </rte>
</gpx>
